dump.vcd
$date
    Jul 31, 2025  05:18:40
$end
$version
    TOOL:	xmsim(64)	22.09-s003
$end
$timescale
    1 ns
$end

$scope module tb_top $end
$var reg       1 !    pclk $end
$var reg       1 "    rst_n $end

$scope module dif $end
$var wire      1 #    pclk  $end
$var wire      1 $    rst_n  $end
$var reg       1 %    psel $end
$var reg       1 &    penable $end
$var reg       1 '    pwrite $end
$var reg      32 (    paddr [31:0] $end
$var reg      32 )    pwdata [31:0] $end
$var reg      32 *    prdata [31:0] $end
$var reg       1 +    pready $end
$upscope $end


$scope module uut $end
$var reg      32 ,    mem[0] [31:0] $end
$var reg      32 -    mem[1] [31:0] $end
$var reg      32 .    mem[2] [31:0] $end
$var reg      32 /    mem[3] [31:0] $end
$var reg      32 0    mem[4] [31:0] $end
$var reg      32 1    mem[5] [31:0] $end
$var reg      32 2    mem[6] [31:0] $end
$var reg      32 3    mem[7] [31:0] $end
$var reg      32 4    mem[8] [31:0] $end
$var reg      32 5    mem[9] [31:0] $end
$var reg      32 6    mem[10] [31:0] $end
$var reg      32 7    mem[11] [31:0] $end
$var reg      32 8    mem[12] [31:0] $end
$var reg      32 9    mem[13] [31:0] $end
$var reg      32 :    mem[14] [31:0] $end
$var reg      32 ;    mem[15] [31:0] $end
$var reg      32 <    mem[16] [31:0] $end
$var reg      32 =    mem[17] [31:0] $end
$var reg      32 >    mem[18] [31:0] $end
$var reg      32 ?    mem[19] [31:0] $end
$var reg      32 @    mem[20] [31:0] $end
$var reg      32 A    mem[21] [31:0] $end
$var reg      32 B    mem[22] [31:0] $end
$var reg      32 C    mem[23] [31:0] $end
$var reg      32 D    mem[24] [31:0] $end
$var reg      32 E    mem[25] [31:0] $end
$var reg      32 F    mem[26] [31:0] $end
$var reg      32 G    mem[27] [31:0] $end
$var reg      32 H    mem[28] [31:0] $end
$var reg      32 I    mem[29] [31:0] $end
$var reg      32 J    mem[30] [31:0] $end
$var reg      32 K    mem[31] [31:0] $end
$var reg      32 L    mem[32] [31:0] $end
$var reg      32 M    mem[33] [31:0] $end
$var reg      32 N    mem[34] [31:0] $end
$var reg      32 O    mem[35] [31:0] $end
$var reg      32 P    mem[36] [31:0] $end
$var reg      32 Q    mem[37] [31:0] $end
$var reg      32 R    mem[38] [31:0] $end
$var reg      32 S    mem[39] [31:0] $end
$var reg      32 T    mem[40] [31:0] $end
$var reg      32 U    mem[41] [31:0] $end
$var reg      32 V    mem[42] [31:0] $end
$var reg      32 W    mem[43] [31:0] $end
$var reg      32 X    mem[44] [31:0] $end
$var reg      32 Y    mem[45] [31:0] $end
$var reg      32 Z    mem[46] [31:0] $end
$var reg      32 [    mem[47] [31:0] $end
$var reg      32 \    mem[48] [31:0] $end
$var reg      32 ]    mem[49] [31:0] $end
$var reg      32 ^    mem[50] [31:0] $end
$var reg      32 _    mem[51] [31:0] $end
$var reg      32 `    mem[52] [31:0] $end
$var reg      32 a    mem[53] [31:0] $end
$var reg      32 b    mem[54] [31:0] $end
$var reg      32 c    mem[55] [31:0] $end
$var reg      32 d    mem[56] [31:0] $end
$var reg      32 e    mem[57] [31:0] $end
$var reg      32 f    mem[58] [31:0] $end
$var reg      32 g    mem[59] [31:0] $end
$var reg      32 h    mem[60] [31:0] $end
$var reg      32 i    mem[61] [31:0] $end
$var reg      32 j    mem[62] [31:0] $end
$var reg      32 k    mem[63] [31:0] $end
$var reg      32 l    mem[64] [31:0] $end
$var reg      32 m    mem[65] [31:0] $end
$var reg      32 n    mem[66] [31:0] $end
$var reg      32 o    mem[67] [31:0] $end
$var reg      32 p    mem[68] [31:0] $end
$var reg      32 q    mem[69] [31:0] $end
$var reg      32 r    mem[70] [31:0] $end
$var reg      32 s    mem[71] [31:0] $end
$var reg      32 t    mem[72] [31:0] $end
$var reg      32 u    mem[73] [31:0] $end
$var reg      32 v    mem[74] [31:0] $end
$var reg      32 w    mem[75] [31:0] $end
$var reg      32 x    mem[76] [31:0] $end
$var reg      32 y    mem[77] [31:0] $end
$var reg      32 z    mem[78] [31:0] $end
$var reg      32 {    mem[79] [31:0] $end
$var reg      32 |    mem[80] [31:0] $end
$var reg      32 }    mem[81] [31:0] $end
$var reg      32 ~    mem[82] [31:0] $end
$var reg      32 !!   mem[83] [31:0] $end
$var reg      32 "!   mem[84] [31:0] $end
$var reg      32 #!   mem[85] [31:0] $end
$var reg      32 $!   mem[86] [31:0] $end
$var reg      32 %!   mem[87] [31:0] $end
$var reg      32 &!   mem[88] [31:0] $end
$var reg      32 '!   mem[89] [31:0] $end
$var reg      32 (!   mem[90] [31:0] $end
$var reg      32 )!   mem[91] [31:0] $end
$var reg      32 *!   mem[92] [31:0] $end
$var reg      32 +!   mem[93] [31:0] $end
$var reg      32 ,!   mem[94] [31:0] $end
$var reg      32 -!   mem[95] [31:0] $end
$var reg      32 .!   mem[96] [31:0] $end
$var reg      32 /!   mem[97] [31:0] $end
$var reg      32 0!   mem[98] [31:0] $end
$var reg      32 1!   mem[99] [31:0] $end
$var reg      32 2!   mem[100] [31:0] $end
$var reg      32 3!   mem[101] [31:0] $end
$var reg      32 4!   mem[102] [31:0] $end
$var reg      32 5!   mem[103] [31:0] $end
$var reg      32 6!   mem[104] [31:0] $end
$var reg      32 7!   mem[105] [31:0] $end
$var reg      32 8!   mem[106] [31:0] $end
$var reg      32 9!   mem[107] [31:0] $end
$var reg      32 :!   mem[108] [31:0] $end
$var reg      32 ;!   mem[109] [31:0] $end
$var reg      32 <!   mem[110] [31:0] $end
$var reg      32 =!   mem[111] [31:0] $end
$var reg      32 >!   mem[112] [31:0] $end
$var reg      32 ?!   mem[113] [31:0] $end
$var reg      32 @!   mem[114] [31:0] $end
$var reg      32 A!   mem[115] [31:0] $end
$var reg      32 B!   mem[116] [31:0] $end
$var reg      32 C!   mem[117] [31:0] $end
$var reg      32 D!   mem[118] [31:0] $end
$var reg      32 E!   mem[119] [31:0] $end
$var reg      32 F!   mem[120] [31:0] $end
$var reg      32 G!   mem[121] [31:0] $end
$var reg      32 H!   mem[122] [31:0] $end
$var reg      32 I!   mem[123] [31:0] $end
$var reg      32 J!   mem[124] [31:0] $end
$var reg      32 K!   mem[125] [31:0] $end
$var reg      32 L!   mem[126] [31:0] $end
$var reg      32 M!   mem[127] [31:0] $end
$var reg      32 N!   mem[128] [31:0] $end
$var reg      32 O!   mem[129] [31:0] $end
$var reg      32 P!   mem[130] [31:0] $end
$var reg      32 Q!   mem[131] [31:0] $end
$var reg      32 R!   mem[132] [31:0] $end
$var reg      32 S!   mem[133] [31:0] $end
$var reg      32 T!   mem[134] [31:0] $end
$var reg      32 U!   mem[135] [31:0] $end
$var reg      32 V!   mem[136] [31:0] $end
$var reg      32 W!   mem[137] [31:0] $end
$var reg      32 X!   mem[138] [31:0] $end
$var reg      32 Y!   mem[139] [31:0] $end
$var reg      32 Z!   mem[140] [31:0] $end
$var reg      32 [!   mem[141] [31:0] $end
$var reg      32 \!   mem[142] [31:0] $end
$var reg      32 ]!   mem[143] [31:0] $end
$var reg      32 ^!   mem[144] [31:0] $end
$var reg      32 _!   mem[145] [31:0] $end
$var reg      32 `!   mem[146] [31:0] $end
$var reg      32 a!   mem[147] [31:0] $end
$var reg      32 b!   mem[148] [31:0] $end
$var reg      32 c!   mem[149] [31:0] $end
$var reg      32 d!   mem[150] [31:0] $end
$var reg      32 e!   mem[151] [31:0] $end
$var reg      32 f!   mem[152] [31:0] $end
$var reg      32 g!   mem[153] [31:0] $end
$var reg      32 h!   mem[154] [31:0] $end
$var reg      32 i!   mem[155] [31:0] $end
$var reg      32 j!   mem[156] [31:0] $end
$var reg      32 k!   mem[157] [31:0] $end
$var reg      32 l!   mem[158] [31:0] $end
$var reg      32 m!   mem[159] [31:0] $end
$var reg      32 n!   mem[160] [31:0] $end
$var reg      32 o!   mem[161] [31:0] $end
$var reg      32 p!   mem[162] [31:0] $end
$var reg      32 q!   mem[163] [31:0] $end
$var reg      32 r!   mem[164] [31:0] $end
$var reg      32 s!   mem[165] [31:0] $end
$var reg      32 t!   mem[166] [31:0] $end
$var reg      32 u!   mem[167] [31:0] $end
$var reg      32 v!   mem[168] [31:0] $end
$var reg      32 w!   mem[169] [31:0] $end
$var reg      32 x!   mem[170] [31:0] $end
$var reg      32 y!   mem[171] [31:0] $end
$var reg      32 z!   mem[172] [31:0] $end
$var reg      32 {!   mem[173] [31:0] $end
$var reg      32 |!   mem[174] [31:0] $end
$var reg      32 }!   mem[175] [31:0] $end
$var reg      32 ~!   mem[176] [31:0] $end
$var reg      32 !"   mem[177] [31:0] $end
$var reg      32 ""   mem[178] [31:0] $end
$var reg      32 #"   mem[179] [31:0] $end
$var reg      32 $"   mem[180] [31:0] $end
$var reg      32 %"   mem[181] [31:0] $end
$var reg      32 &"   mem[182] [31:0] $end
$var reg      32 '"   mem[183] [31:0] $end
$var reg      32 ("   mem[184] [31:0] $end
$var reg      32 )"   mem[185] [31:0] $end
$var reg      32 *"   mem[186] [31:0] $end
$var reg      32 +"   mem[187] [31:0] $end
$var reg      32 ,"   mem[188] [31:0] $end
$var reg      32 -"   mem[189] [31:0] $end
$var reg      32 ."   mem[190] [31:0] $end
$var reg      32 /"   mem[191] [31:0] $end
$var reg      32 0"   mem[192] [31:0] $end
$var reg      32 1"   mem[193] [31:0] $end
$var reg      32 2"   mem[194] [31:0] $end
$var reg      32 3"   mem[195] [31:0] $end
$var reg      32 4"   mem[196] [31:0] $end
$var reg      32 5"   mem[197] [31:0] $end
$var reg      32 6"   mem[198] [31:0] $end
$var reg      32 7"   mem[199] [31:0] $end
$var reg      32 8"   mem[200] [31:0] $end
$var reg      32 9"   mem[201] [31:0] $end
$var reg      32 :"   mem[202] [31:0] $end
$var reg      32 ;"   mem[203] [31:0] $end
$var reg      32 <"   mem[204] [31:0] $end
$var reg      32 ="   mem[205] [31:0] $end
$var reg      32 >"   mem[206] [31:0] $end
$var reg      32 ?"   mem[207] [31:0] $end
$var reg      32 @"   mem[208] [31:0] $end
$var reg      32 A"   mem[209] [31:0] $end
$var reg      32 B"   mem[210] [31:0] $end
$var reg      32 C"   mem[211] [31:0] $end
$var reg      32 D"   mem[212] [31:0] $end
$var reg      32 E"   mem[213] [31:0] $end
$var reg      32 F"   mem[214] [31:0] $end
$var reg      32 G"   mem[215] [31:0] $end
$var reg      32 H"   mem[216] [31:0] $end
$var reg      32 I"   mem[217] [31:0] $end
$var reg      32 J"   mem[218] [31:0] $end
$var reg      32 K"   mem[219] [31:0] $end
$var reg      32 L"   mem[220] [31:0] $end
$var reg      32 M"   mem[221] [31:0] $end
$var reg      32 N"   mem[222] [31:0] $end
$var reg      32 O"   mem[223] [31:0] $end
$var reg      32 P"   mem[224] [31:0] $end
$var reg      32 Q"   mem[225] [31:0] $end
$var reg      32 R"   mem[226] [31:0] $end
$var reg      32 S"   mem[227] [31:0] $end
$var reg      32 T"   mem[228] [31:0] $end
$var reg      32 U"   mem[229] [31:0] $end
$var reg      32 V"   mem[230] [31:0] $end
$var reg      32 W"   mem[231] [31:0] $end
$var reg      32 X"   mem[232] [31:0] $end
$var reg      32 Y"   mem[233] [31:0] $end
$var reg      32 Z"   mem[234] [31:0] $end
$var reg      32 ["   mem[235] [31:0] $end
$var reg      32 \"   mem[236] [31:0] $end
$var reg      32 ]"   mem[237] [31:0] $end
$var reg      32 ^"   mem[238] [31:0] $end
$var reg      32 _"   mem[239] [31:0] $end
$var reg      32 `"   mem[240] [31:0] $end
$var reg      32 a"   mem[241] [31:0] $end
$var reg      32 b"   mem[242] [31:0] $end
$var reg      32 c"   mem[243] [31:0] $end
$var reg      32 d"   mem[244] [31:0] $end
$var reg      32 e"   mem[245] [31:0] $end
$var reg      32 f"   mem[246] [31:0] $end
$var reg      32 g"   mem[247] [31:0] $end
$var reg      32 h"   mem[248] [31:0] $end
$var reg      32 i"   mem[249] [31:0] $end
$var reg      32 j"   mem[250] [31:0] $end
$var reg      32 k"   mem[251] [31:0] $end
$var reg      32 l"   mem[252] [31:0] $end
$var reg      32 m"   mem[253] [31:0] $end
$var reg      32 n"   mem[254] [31:0] $end
$var reg      32 o"   mem[255] [31:0] $end
$var reg       2 p"   present_state [1:0] $end
$var reg       2 q"   next_state [1:0] $end
$upscope $end

$upscope $end


$scope module cdns_uvm_pkg $end
$var parameter 32 r"   UVM_SET_VERBOSITY $end
$var parameter 32 s"   UVM_GET_VERBOSITY $end
$var parameter 32 t"   UVM_SET_ACTIONS $end
$var parameter 32 u"   UVM_GET_ACTIONS $end
$var parameter 32 v"   UVM_SET_STYLE $end
$var parameter 32 w"   UVM_GET_STYLE $end
$var parameter 32 x"   UVM_SET_SEVERITY $end
$var parameter 32 y"   UVM_GET_SEVERITY $end
$var event     1 z"   uvm_build_complete $end
$var reg       1 {"   uvm_phase_is_start $end
$var reg       1 |"   uvm_ml_mode $end
$var event     1 }"   cdns_uvm_data_valid $end

$scope function uvm_cdns_report_server_setup $end
$var reg       1 ~"   uvm_cdns_report_server_setup $end
$var reg       1 !#   enable $end
$upscope $end


$scope task cdns_tcl_print_component $end
$var integer  32 "#   depth $end
$var reg       1 ##   nooutput $end
$var integer  32 $#   fp $end
$upscope $end


$scope task cdns_tcl_print_components $end
$var integer  32 %#   depth $end
$var reg       1 &#   all $end
$var reg       1 '#   nooutput $end
$var integer  32 (#   fp $end
$upscope $end


$scope task cdns_tcl_list_components $end
$var reg       1 )#   nooutput $end
$var integer  32 *#   fp $end
$upscope $end


$scope task cdns_tcl_set $end
$var reg      4096 +#   value [4095:0] $end
$var reg       1 ,#   do_config $end
$upscope $end


$scope task cdns_tcl_set_string $end
$var reg       1 -#   do_config $end
$upscope $end


$scope task cdns_tcl_set_message $end
$var integer  32 .#   verbosity $end
$upscope $end


$scope task cdns_tcl_get_message $end
$var integer  32 /#   fp $end
$var integer  32 0#   verbosity $end
$upscope $end


$scope function cdns_tcl_uvm_message_hyperlinks $end
$var integer  32 1#   cdns_tcl_uvm_message_hyperlinks $end
$var integer  32 2#   enable $end
$var integer  32 3#   status $end
$upscope $end

$upscope $end


$scope module cdns_assert2uvm_pkg $end
$var integer  32 4#   verbosity $end
$upscope $end


$scope module uvm_pkg $end
$var parameter 32 5#   UVM_HDL_MAX_WIDTH $end
$var parameter 328 6#   uvm_mgc_copyright $end
$var parameter 336 7#   uvm_cdn_copyright $end
$var parameter 224 8#   uvm_snps_copyright $end
$var parameter 328 9#   uvm_cy_copyright $end
$var parameter 208 :#   uvm_revision $end
$var reg       1 ;#   uvm_start_uvm_declarations $end
$var parameter 32 <#   UVM_STREAMBITS $end
$var parameter 32 =#   UVM_RADIX $end
$var parameter 32 >#   UVM_MACRO_NUMFLAGS $end
$var parameter 32 ?#   UVM_DEFAULT $end
$var parameter 32 @#   UVM_ALL_ON $end
$var parameter 32 A#   UVM_FLAGS_ON $end
$var parameter 32 B#   UVM_FLAGS_OFF $end
$var parameter 32 C#   UVM_COPY $end
$var parameter 32 D#   UVM_NOCOPY $end
$var parameter 32 E#   UVM_COMPARE $end
$var parameter 32 F#   UVM_NOCOMPARE $end
$var parameter 32 G#   UVM_PRINT $end
$var parameter 32 H#   UVM_NOPRINT $end
$var parameter 32 I#   UVM_RECORD $end
$var parameter 32 J#   UVM_NORECORD $end
$var parameter 32 K#   UVM_PACK $end
$var parameter 32 L#   UVM_NOPACK $end
$var parameter 32 M#   UVM_PHYSICAL $end
$var parameter 32 N#   UVM_ABSTRACT $end
$var parameter 32 O#   UVM_READONLY $end
$var parameter 32 P#   UVM_NODEFPRINT $end
$var parameter 32 Q#   UVM_MACRO_EXTRAS $end
$var parameter 32 R#   UVM_FLAGS $end
$var parameter 32 S#   UVM_UNPACK $end
$var parameter 32 T#   UVM_CHECK_FIELDS $end
$var parameter 32 U#   UVM_END_DATA_EXTRA $end
$var parameter 32 V#   UVM_START_FUNCS $end
$var parameter 32 W#   UVM_SET $end
$var parameter 32 X#   UVM_SETINT $end
$var parameter 32 Y#   UVM_SETOBJ $end
$var parameter 32 Z#   UVM_SETSTR $end
$var parameter 32 [#   UVM_END_FUNCS $end
$var integer  32 \#   uvm_global_random_seed $end
$var parameter 32 ]#   UVM_STR_CRC_POLYNOMIAL $end
$var parameter 32 ^#   UVM_STDOUT $end
$var parameter 32 _#   UVM_LINE_WIDTH $end
$var parameter 32 `#   UVM_NUM_LINES $end
$var parameter 32 a#   UVM_SMALL_STRING $end
$var parameter 32 b#   UVM_LARGE_STRING $end
$var integer  32 c#   UVM_UNBOUNDED_CONNECTIONS $end

$scope function uvm_hdl_check_path $end
$var integer  32 d#   uvm_hdl_check_path $end
$upscope $end


$scope function uvm_hdl_deposit $end
$var integer  32 e#   uvm_hdl_deposit $end
$var reg      1024 f#   value [1023:0] $end
$upscope $end


$scope function uvm_hdl_force $end
$var integer  32 g#   uvm_hdl_force $end
$var reg      1024 h#   value [1023:0] $end
$upscope $end


$scope task uvm_hdl_force_time $end
$var reg      1024 i#   value [1023:0] $end
$var time     64 j#   force_time $end
$upscope $end


$scope function uvm_hdl_release_and_read $end
$var integer  32 k#   uvm_hdl_release_and_read $end
$var reg      1024 l#   value [1023:0] $end
$upscope $end


$scope function uvm_hdl_release $end
$var integer  32 m#   uvm_hdl_release $end
$upscope $end


$scope function uvm_hdl_read $end
$var integer  32 n#   uvm_hdl_read $end
$var reg      1024 o#   value [1023:0] $end
$upscope $end


$scope function uvm_dpi_get_next_arg_c $end
$var integer  32 p#   init $end
$upscope $end


$scope function uvm_dpi_get_next_arg $end
$var integer  32 q#   init $end
$upscope $end


$scope function uvm_dpi_regexec $end
$var integer  32 r#   uvm_dpi_regexec $end
$upscope $end


$scope function uvm_re_match $end
$var integer  32 s#   uvm_re_match $end
$upscope $end


$scope function uvm_regcomp $end
$var reg      64 t#   uvm_regcomp [63:0] $end
$upscope $end


$scope function uvm_regexec $end
$var integer  32 u#   uvm_regexec $end
$var reg      64 v#   re [63:0] $end
$var integer  32 w#   nmatch $end
$var reg      64 x#   ptr [63:0] $end
$var integer  32 y#   eflags $end
$upscope $end


$scope task uvm_regfree $end
$var reg      64 z#   re [63:0] $end
$upscope $end


$scope function uvm_radix_to_string $end
$var reg      32 {#   radix [31:0] $end
$upscope $end


$scope function uvm_instance_scope $end
$var reg       8 |#   c [7:0] $end
$var integer  32 }#   pos $end
$upscope $end


$scope function uvm_oneway_hash $end
$var integer  32 ~#   uvm_oneway_hash $end
$var integer  32 !$   seed $end
$var reg       1 "$   msb $end
$var reg       8 #$   current_byte [7:0] $end
$var reg      32 $$   crc1 [31:0] $end
$upscope $end


$scope function uvm_create_random_seed $end
$var integer  32 %$   uvm_create_random_seed $end
$upscope $end


$scope function uvm_leaf_scope $end
$var reg       8 &$   scope_separator [7:0] $end
$var reg       8 '$   bracket_match [7:0] $end
$var integer  32 ($   pos $end
$var integer  32 )$   bmatches $end
$upscope $end


$scope function uvm_vector_to_string $end
$var reg      4096 *$   value [4095:0] $end
$var integer  32 +$   size $end
$var reg      32 ,$   radix [31:0] $end
$var reg      4096 -$   v [4095:0] $end
$upscope $end


$scope function uvm_get_array_index_int $end
$var integer  32 .$   uvm_get_array_index_int $end
$var reg       1 /$   is_wildcard $end
$var integer  32 0$   i $end
$upscope $end


$scope function uvm_get_array_index_string $end
$var reg       1 1$   is_wildcard $end
$var integer  32 2$   i $end
$upscope $end


$scope function uvm_is_array $end
$var reg       1 3$   uvm_is_array $end
$upscope $end


$scope task set_global_timeout $end
$var time     64 4$   timeout $end
$var reg       1 5$   overridable $end
$upscope $end


$scope task set_global_stop_timeout $end
$var time     64 6$   timeout $end
$upscope $end


$scope function uvm_report_enabled $end
$var reg       1 7$   uvm_report_enabled $end
$var integer  32 8$   verbosity $end
$var reg       2 9$   severity [1:0] $end
$upscope $end


$scope task uvm_report $end
$var reg       2 :$   severity [1:0] $end
$var integer  32 ;$   verbosity $end
$var integer  32 <$   line $end
$upscope $end


$scope task uvm_report_info $end
$var integer  32 =$   verbosity $end
$var integer  32 >$   line $end
$upscope $end


$scope task uvm_report_warning $end
$var integer  32 ?$   verbosity $end
$var integer  32 @$   line $end
$upscope $end


$scope task uvm_report_error $end
$var integer  32 A$   verbosity $end
$var integer  32 B$   line $end
$upscope $end


$scope task uvm_report_fatal $end
$var integer  32 C$   verbosity $end
$var integer  32 D$   line $end
$upscope $end


$scope function uvm_string_to_severity $end
$var reg       1 E$   uvm_string_to_severity $end
$var reg       2 F$   sev [1:0] $end
$upscope $end


$scope task set_config_int $end
$var reg      4096 G$   value [4095:0] $end
$upscope $end


$scope task set_config_object $end
$var reg       1 H$   clone $end
$upscope $end


$scope function uvm_is_match $end
$var reg       1 I$   uvm_is_match $end
$upscope $end


$scope task uvm_wait_for_nba_region $end
$var integer  32 J$   nba $end
$var integer  32 K$   next_nba $end
$upscope $end

$upscope $end

$enddefinitions $end
$dumpvars
b11100000111111111 b#
b1110111111 a#
b1111000 `#
b1111000 _#
b1 ^#
b100110000010001110110110110 ]#
b100000000000001000 [#
b100000000000001000 Z#
b100000000000000111 Y#
b100000000000000110 X#
b100000000000000110 W#
b100000000000000101 V#
b100000000000000100 U#
b100000000000000011 T#
b100000000000000010 S#
b100000000000000001 R#
b100000000000000000 Q#
b10000000000000000 P#
b1000000000000000 O#
b100000000000000 N#
b10000000000000 M#
b1000000000 L#
b100000000 K#
b10000000 J#
b1000000 I#
b100000 H#
b10000 G#
b1000 F#
b100 E#
b10 D#
b1 C#
b0 B#
b101010101 A#
b101010101 @#
b10101010101 ?#
b10001 >#
b1111000000000000000000000000 =#
b1000000000000 <#
b100000000000000000000000000000000001000000000000000000000000000000001100000000000000000000000000011111000000000000000000000000000001000000000000000000000000000000001100000000000000000000000000011000 :#
b1100000000000000000000000000100000000000000000000000000000000001000000000000000000000000000000001100000000000000000000000000011111000000000000000000000000000001000000000000000000000000000000001100000000000000000000000000011000000000000000000000000000000001000000000000000000000000000000001100000000000000000000000000010111 9#
b11000000000000000000000000000000001000000000000000000000000000000001100000000000000000000000000010111000000000000000000000000000001000000000000000000000000000000001100000000000000000000000000010110 8#
b1100000000000000000000000000011000000000000000000000000000000001000000000000000000000000000000001100000000000000000000000000010111000000000000000000000000000001000000000000000000000000000000001100000000000000000000000000010110000000000000000000000000000001000000000000000000000000000000001100000000000000000000000000010101 7#
b1100000000000000000000000000010111000000000000000000000000000001000000000000000000000000000000001100000000000000000000000000010110000000000000000000000000000001000000000000000000000000000000001100000000000000000000000000010101000000000000000000000000000001000000000000000000000000000000001100000000000000000000000000010100 6#
b10000000000 5#
b111 y"
b110 x"
b101 w"
b100 v"
b11 u"
b10 t"
b1 s"
b0 r"
1!
0"
1#
0$
1%
0&
1'
b111111 (
b111110110000011001111011101101 )
b0 *
0+
b0 ,
b0 -
b0 .
b0 /
b0 0
b0 1
b0 2
b0 3
b0 4
b0 5
b0 6
b0 7
b0 8
b0 9
b0 :
b0 ;
b0 <
b0 =
b0 >
b0 ?
b0 @
b0 A
b0 B
b0 C
b0 D
b0 E
b0 F
b0 G
b0 H
b0 I
b0 J
b0 K
b0 L
b0 M
b0 N
b0 O
b0 P
b0 Q
b0 R
b0 S
b0 T
b0 U
b0 V
b0 W
b0 X
b0 Y
b0 Z
b0 [
b0 \
b0 ]
b0 ^
b0 _
b0 `
b0 a
b0 b
b0 c
b0 d
b0 e
b0 f
b0 g
b0 h
b0 i
b0 j
b0 k
b0 l
b0 m
b0 n
b0 o
b0 p
b0 q
b0 r
b0 s
b0 t
b0 u
b0 v
b0 w
b0 x
b0 y
b0 z
b0 {
b0 |
b0 }
b0 ~
b0 !!
b0 "!
b0 #!
b0 $!
b0 %!
b0 &!
b0 '!
b0 (!
b0 )!
b0 *!
b0 +!
b0 ,!
b0 -!
b0 .!
b0 /!
b0 0!
b0 1!
b0 2!
b0 3!
b0 4!
b0 5!
b0 6!
b0 7!
b0 8!
b0 9!
b0 :!
b0 ;!
b0 <!
b0 =!
b0 >!
b0 ?!
b0 @!
b0 A!
b0 B!
b0 C!
b0 D!
b0 E!
b0 F!
b0 G!
b0 H!
b0 I!
b0 J!
b0 K!
b0 L!
b0 M!
b0 N!
b0 O!
b0 P!
b0 Q!
b0 R!
b0 S!
b0 T!
b0 U!
b0 V!
b0 W!
b0 X!
b0 Y!
b0 Z!
b0 [!
b0 \!
b0 ]!
b0 ^!
b0 _!
b0 `!
b0 a!
b0 b!
b0 c!
b0 d!
b0 e!
b0 f!
b0 g!
b0 h!
b0 i!
b0 j!
b0 k!
b0 l!
b0 m!
b0 n!
b0 o!
b0 p!
b0 q!
b0 r!
b0 s!
b0 t!
b0 u!
b0 v!
b0 w!
b0 x!
b0 y!
b0 z!
b0 {!
b0 |!
b0 }!
b0 ~!
b0 !"
b0 ""
b0 #"
b0 $"
b0 %"
b0 &"
b0 '"
b0 ("
b0 )"
b0 *"
b0 +"
b0 ,"
b0 -"
b0 ."
b0 /"
b0 0"
b0 1"
b0 2"
b0 3"
b0 4"
b0 5"
b0 6"
b0 7"
b0 8"
b0 9"
b0 :"
b0 ;"
b0 <"
b0 ="
b0 >"
b0 ?"
b0 @"
b0 A"
b0 B"
b0 C"
b0 D"
b0 E"
b0 F"
b0 G"
b0 H"
b0 I"
b0 J"
b0 K"
b0 L"
b0 M"
b0 N"
b0 O"
b0 P"
b0 Q"
b0 R"
b0 S"
b0 T"
b0 U"
b0 V"
b0 W"
b0 X"
b0 Y"
b0 Z"
b0 ["
b0 \"
b0 ]"
b0 ^"
b0 _"
b0 `"
b0 a"
b0 b"
b0 c"
b0 d"
b0 e"
b0 f"
b0 g"
b0 h"
b0 i"
b0 j"
b0 k"
b0 l"
b0 m"
b0 n"
b0 o"
b0 p"
b1 q"
xz"
1{"
0|"
x}"
x~"
0!#
b0 "#
0##
bx $#
b0 %#
0&#
0'#
bx (#
x)#
bx *#
bx +#
0,#
0-#
b0 .#
bx /#
b0 0#
b0 1#
b0 2#
b0 3#
b0 4#
1;#
b1100101011100011111100001110010 \#
b11111111111111111111111111111111 c#
b0 d#
b0 e#
bx f#
b0 g#
bx h#
bx i#
bx j#
b0 k#
bx l#
b0 m#
b0 n#
bx o#
b0 p#
b0 q#
b0 r#
b0 s#
b0 t#
b0 u#
b0 v#
b0 w#
b0 x#
b0 y#
b0 z#
b0 {#
b111010 |#
b1000 }#
b11101101111101000011100010001100 ~#
b1100101011100011111100001110010 !$
1"$
b1110011 #$
b11100101101111110111110101110111 $$
b110100100101010111001010001011 %$
b0 &$
b0 '$
b0 ($
b0 )$
bx *$
b0 +$
b0 ,$
bx -$
b0 .$
0/$
b0 0$
01$
b0 2$
03$
bx 4$
05$
bx 6$
07$
b111110100 8$
b0 9$
b0 :$
b0 ;$
b0 <$
b0 =$
b0 >$
b0 ?$
b0 @$
b0 A$
b0 B$
b0 C$
b0 D$
0E$
b0 F$
bx G$
0H$
0I$
b100100 J$
b100100 K$
$end
#5
0!
0#
#10
1!
1&
1#
#15
0!
0#
#20
1!
1#
#25
0!
0#
#30
1!
1"
1$
1#
b1 p"
b10 q"
#35
0!
0#
#40
1!
1#
b10 p"
b11 q"
#45
0!
0#
#50
1!
1#
b11 p"
1+
b111110110000011001111011101101 k
b10 q"
#55
0!
0#
#60
1!
0%
0&
b100101 K$
1#
b100101 J$
b10 p"
0+
b11 q"
#65
0!
0#
#70
1!
1#
b11 p"
1+
b10 q"
#75
0!
0#
#80
1!
1#
b10 p"
0+
b11 q"
#85
0!
0#
#90
1!
1#
b11 p"
1+
b10 q"
#95
0!
0#
#100
1!
b11101101111101000011100010001101 %$
b100110 K$
1#
b100110 J$
b10 p"
0+
b11 q"
0'
1%
b0 )
#105
0!
0#
#110
1!
1&
1#
b11 p"
1+
b111110110000011001111011101101 *
b10 q"
#115
0!
0#
#120
1!
0%
0&
b100111 K$
1#
b100111 J$
b10 p"
0+
b11 q"
#125
0!
0#
#130
1!
1#
b11 p"
1+
b10 q"
#135
0!
0#
#140
1!
1#
b10 p"
0+
b11 q"
#145
0!
0#
#150
1!
1#
b11 p"
1+
b10 q"
#155
0!
0#
#160
1!
b11101101111101000011100010001111 %$
b101000 K$
1#
b101000 J$
b10 p"
0+
b11 q"
b11000111 (
1'
b1100101010010111011110010101101 )
1%
b0 *
#165
0!
0#
#170
1!
1&
1#
b11 p"
1+
b1100101010010111011110010101101 7"
b10 q"
#175
0!
0#
#180
1!
0%
0&
b101001 K$
1#
b101001 J$
b10 p"
0+
b11 q"
#185
0!
0#
#190
1!
1#
b11 p"
1+
b10 q"
#195
0!
0#
#200
1!
1#
b10 p"
0+
b11 q"
#205
0!
0#
#210
1!
1#
b11 p"
1+
b10 q"
#215
0!
0#
#220
1!
b11101101111101000011100010010010 %$
b101010 K$
1#
b101010 J$
b10 p"
0+
b11 q"
0'
1%
b0 )
#225
0!
0#
#230
1!
1&
1#
b11 p"
1+
b1100101010010111011110010101101 *
b10 q"
#235
0!
0#
#240
1!
0%
0&
b101011 K$
1#
b101011 J$
b10 p"
0+
b11 q"
#245
0!
0#
#250
1!
1#
b11 p"
1+
b10 q"
#255
0!
0#
#260
1!
1#
b10 p"
0+
b11 q"
#265
0!
0#
#270
1!
1#
b11 p"
1+
b10 q"
#275
0!
0#
#280
1!
b11101101111101000011100010010110 %$
b101100 K$
1#
b101100 J$
b10 p"
0+
b11 q"
b100 (
1'
b11000011010101101010111010000001 )
1%
b0 *
#285
0!
0#
#290
1!
1&
1#
b11 p"
1+
b11000011010101101010111010000001 0
b10 q"
#295
0!
0#
#300
1!
0%
0&
b101101 K$
1#
b101101 J$
b10 p"
0+
b11 q"
#305
0!
0#
#310
1!
1#
b11 p"
1+
b10 q"
#315
0!
0#
#320
1!
1#
b10 p"
0+
b11 q"
#325
0!
0#
#330
1!
1#
b11 p"
1+
b10 q"
